nthu_SoC_lab3/fir.vcd
$date
   Mon Oct 23 05:36:11 2023
$end
$version
  2022.1
$end
$timescale
  1ps
$end
$scope module fir_tb $end
$var wire 1 ! awready $end
$var wire 1 " wready $end
$var reg 1 # awvalid $end
$var reg 12 $ awaddr [11:0] $end
$var reg 1 % wvalid $end
$var reg 32 & wdata [31:0] $end
$var wire 1 ' arready $end
$var reg 1 ( rready $end
$var reg 1 ) arvalid $end
$var reg 12 * araddr [11:0] $end
$var wire 1 + rvalid $end
$var wire 32 , rdata [31:0] $end
$var reg 1 - ss_tvalid $end
$var reg 32 . ss_tdata [31:0] $end
$var reg 1 / ss_tlast $end
$var wire 1 0 ss_tready $end
$var reg 1 1 sm_tready $end
$var wire 1 2 sm_tvalid $end
$var wire 32 3 sm_tdata [31:0] $end
$var wire 1 4 sm_tlast $end
$var reg 1 5 axis_clk $end
$var reg 1 6 axis_rst_n $end
$var wire 4 7 tap_WE [3:0] $end
$var wire 1 8 tap_EN $end
$var wire 32 9 tap_Di [31:0] $end
$var wire 12 : tap_A [11:0] $end
$var wire 32 ; tap_Do [31:0] $end
$var wire 4 < data_WE [3:0] $end
$var wire 1 = data_EN $end
$var wire 32 > data_Di [31:0] $end
$var wire 12 ? data_A [11:0] $end
$var wire 32 @ data_Do [31:0] $end
$var reg 32 A data_length [31:0] $end
$var integer 32 B Din [31:0] $end
$var integer 32 C golden [31:0] $end
$var integer 32 D input_data [31:0] $end
$var integer 32 E golden_data [31:0] $end
$var integer 32 F m [31:0] $end
$var integer 32 G i [31:0] $end
$var integer 32 H k [31:0] $end
$var reg 1 I error $end
$var reg 1 J error_coef $end
$var integer 32 K timeout [31:0] $end
$scope module fir_DUT $end
$var reg 1 L awready $end
$var wire 1 M awvalid $end
$var wire 12 N awaddr [11:0] $end
$var reg 1 O wready $end
$var wire 1 P wvalid $end
$var wire 32 Q wdata [31:0] $end
$var reg 1 R arready $end
$var wire 1 S arvalid $end
$var wire 12 T araddr [11:0] $end
$var wire 1 U rready $end
$var reg 1 V rvalid $end
$var reg 32 W rdata [31:0] $end
$var wire 1 X ss_tvalid $end
$var wire 1 Y ss_tlast $end
$var wire 32 Z ss_tdata [31:0] $end
$var reg 1 [ ss_tready $end
$var wire 1 \ sm_tready $end
$var reg 1 ] sm_tvalid $end
$var reg 1 ^ sm_tlast $end
$var reg 32 _ sm_tdata [31:0] $end
$var reg 4 ` tap_WE [3:0] $end
$var reg 1 a tap_EN $end
$var reg 32 b tap_Di [31:0] $end
$var reg 12 c tap_A [11:0] $end
$var wire 32 ; tap_Do [31:0] $end
$var reg 4 d data_WE [3:0] $end
$var reg 1 e data_EN $end
$var reg 32 f data_Di [31:0] $end
$var reg 12 g data_A [11:0] $end
$var wire 32 @ data_Do [31:0] $end
$var wire 1 h axis_clk $end
$var wire 1 i axis_rst_n $end
$var reg 32 j ap [31:0] $end
$var reg 1 k bram_ready $end
$var reg 12 l data_index [11:0] $end
$var reg 12 m fir_data_index [11:0] $end
$var reg 12 n coef_index [11:0] $end
$var reg 3 o state [2:0] $end
$var reg 4 p count [3:0] $end
$var reg 10 q tcount [9:0] $end
$var reg 32 r acc [31:0] $end
$var reg 4 s acc_count [3:0] $end
$var reg 1 t acc_state $end
$upscope $end
$scope module tap_RAM $end
$var wire 1 u CLK $end
$var wire 4 7 WE [3:0] $end
$var wire 1 8 EN $end
$var wire 32 9 Di [31:0] $end
$var wire 32 ; Do [31:0] $end
$var wire 12 : A [11:0] $end
$var reg 12 v r_A [11:0] $end
$upscope $end
$scope module data_RAM $end
$var wire 1 w CLK $end
$var wire 4 < WE [3:0] $end
$var wire 1 = EN $end
$var wire 32 > Di [31:0] $end
$var wire 32 @ Do [31:0] $end
$var wire 12 ? A [11:0] $end
$var reg 12 x r_A [11:0] $end
$upscope $end
$scope task config_write $end
$var reg 12 y addr [11:0] $end
$var reg 32 z data [31:0] $end
$upscope $end
$scope task config_read_check $end
$var reg 12 { addr [11:0] $end
$var reg 32 | exp_data [31:0] $end
$var reg 32 } mask [31:0] $end
$upscope $end
$scope task ss $end
$var reg 32 ~ in1 [31:0] $end
$upscope $end
$scope task sm $end
$var reg 32 !! in2 [31:0] $end
$var reg 32 "! pcnt [31:0] $end
$upscope $end
$upscope $end
$enddefinitions $end
#0
$dumpvars
0!
bx !!
0"
bx "!
0#
bx $
0%
bx &
0'
x(
x)
bx *
0+
bx ,
1-
b1 .
0/
00
11
x2
bx 3
x4
05
06
b0 7
08
bx 9
bx :
b0 ;
bx <
x=
bx >
bx ?
bx @
b1001011000 A
b11111111111111111011000111100000 B
b11111111111111111011000111100001 C
b1 D
b1 E
b1001011000 F
b0 G
bx H
0I
0J
b11110100001001000000 K
0L
0M
bx N
0O
0P
bx Q
0R
xS
bx T
xU
0V
bx W
1X
0Y
b1 Z
0[
1\
x]
x^
bx _
b0 `
0a
bx b
bx c
bx d
xe
bx f
bx g
0h
0i
b101 j
xk
b0 l
b0 m
b0 n
b0 o
b0 p
b0 q
b0 r
b0 s
xt
0u
bx v
0w
bx x
b110000 y
b1001011000 z
bx {
bx |
bx }
b1 ~
$end
#5000
1#
b110000 $
1%
b1001011000 &
15
b11110100001000111111 K
0L
1M
b110000 N
0O
1P
b1001011000 Q
0R
0V
0[
b0 `
0a
1h
b101 j
b0 l
b0 m
b0 n
b0 o
b0 p
b0 q
b0 r
b0 s
1u
bx v
1w
bx x
#10000
05
0h
0u
0w
#15000
1!
1"
15
16
b11110100001000111110 K
1L
1O
1h
1i
1u
bx v
1w
bx x
#20000
05
0h
0u
0w
#25000
0#
0%
15
b0 H
b11110100001000111101 K
1L
0M
1O
0P
1h
1u
bx v
1w
bx x
b0 y
b0 z
#30000
05
0h
0u
0w
#35000
1#
b0 $
1%
b0 &
15
b11110100001000111100 K
1M
b0 N
1P
b0 Q
1h
1u
bx v
1w
bx x
#40000
05
0h
0u
0w
#45000
0!
0"
0#
0%
15
b1111 7
18
b0 9
b0 :
bx ;
b1 H
b11110100001000111011 K
0L
0M
0O
0P
b1111 `
1a
b0 b
b0 c
1h
1u
bx v
1w
bx x
b100 y
b11111111111111111111111111110110 z
#50000
05
0h
0u
0w
#55000
1#
b100 $
1%
b11111111111111111111111111110110 &
15
b0 ;
b11110100001000111010 K
1M
b100 N
1P
b11111111111111111111111111110110 Q
1h
1u
b0 v
1w
bx x
#60000
05
0h
0u
0w
#65000
1!
1"
15
b11110100001000111001 K
1L
1O
1h
1u
b0 v
1w
bx x
#70000
05
0h
0u
0w
#75000
0!
0"
0#
0%
15
b11111111111111111111111111110110 9
b100 :
b10 H
b11110100001000111000 K
0L
0M
0O
0P
b1111 `
1a
b11111111111111111111111111110110 b
b100 c
1h
1u
b0 v
1w
bx x
b1000 y
b11111111111111111111111111110111 z
#80000
05
0h
0u
0w
#85000
1#
b1000 $
1%
b11111111111111111111111111110111 &
15
b11111111111111111111111111110110 ;
b11110100001000110111 K
1M
b1000 N
1P
b11111111111111111111111111110111 Q
1h
1u
b100 v
1w
bx x
#90000
05
0h
0u
0w
#95000
1!
1"
15
b11110100001000110110 K
1L
1O
1h
1u
b100 v
1w
bx x
#100000
05
0h
0u
0w
#105000
0!
0"
0#
0%
15
b11111111111111111111111111110111 9
b1000 :
b11 H
b11110100001000110101 K
0L
0M
0O
0P
b1111 `
1a
b11111111111111111111111111110111 b
b1000 c
1h
1u
b100 v
1w
bx x
b1100 y
b10111 z
#110000
05
0h
0u
0w
#115000
1#
b1100 $
1%
b10111 &
15
b11111111111111111111111111110111 ;
b11110100001000110100 K
1M
b1100 N
1P
b10111 Q
1h
1u
b1000 v
1w
bx x
#120000
05
0h
0u
0w
#125000
1!
1"
15
b11110100001000110011 K
1L
1O
1h
1u
b1000 v
1w
bx x
#130000
05
0h
0u
0w
#135000
0!
0"
0#
0%
15
b10111 9
b1100 :
b100 H
b11110100001000110010 K
0L
0M
0O
0P
b1111 `
1a
b10111 b
b1100 c
1h
1u
b1000 v
1w
bx x
b10000 y
b111000 z
#140000
05
0h
0u
0w
#145000
1#
b10000 $
1%
b111000 &
15
b10111 ;
b11110100001000110001 K
1M
b10000 N
1P
b111000 Q
1h
1u
b1100 v
1w
bx x
#150000
05
0h
0u
0w
#155000
1!
1"
15
b11110100001000110000 K
1L
1O
1h
1u
b1100 v
1w
bx x
#160000
05
0h
0u
0w
#165000
0!
0"
0#
0%
15
b111000 9
b10000 :
b101 H
b11110100001000101111 K
0L
0M
0O
0P
b1111 `
1a
b111000 b
b10000 c
1h
1u
b1100 v
1w
bx x
b10100 y
b111111 z
#170000
05
0h
0u
0w
#175000
1#
b10100 $
1%
b111111 &
15
b111000 ;
b11110100001000101110 K
1M
b10100 N
1P
b111111 Q
1h
1u
b10000 v
1w
bx x
#180000
05
0h
0u
0w
#185000
1!
1"
15
b11110100001000101101 K
1L
1O
1h
1u
b10000 v
1w
bx x
#190000
05
0h
0u
0w
#195000
0!
0"
0#
0%
15
b111111 9
b10100 :
b110 H
b11110100001000101100 K
0L
0M
0O
0P
b1111 `
1a
b111111 b
b10100 c
1h
1u
b10000 v
1w
bx x
b11000 y
b111000 z
#200000
05
0h
0u
0w
#205000
1#
b11000 $
1%
b111000 &
15
b111111 ;
b11110100001000101011 K
1M
b11000 N
1P
b111000 Q
1h
1u
b10100 v
1w
bx x
#210000
05
0h
0u
0w
#215000
1!
1"
15
b11110100001000101010 K
1L
1O
1h
1u
b10100 v
1w
bx x
#220000
05
0h
0u
0w
#225000
0!
0"
0#
0%
15
b111000 9
b11000 :
b111 H
b11110100001000101001 K
0L
0M
0O
0P
b1111 `
1a
b111000 b
b11000 c
1h
1u
b10100 v
1w
bx x
b11100 y
b10111 z
#230000
05
0h
0u
0w
#235000
1#
b11100 $
1%
b10111 &
15
b111000 ;
b11110100001000101000 K
1M
b11100 N
1P
b10111 Q
1h
1u
b11000 v
1w
bx x
#240000
05
0h
0u
0w
#245000
1!
1"
15
b11110100001000100111 K
1L
1O
1h
1u
b11000 v
1w
bx x
#250000
05
0h
0u
0w
#255000
0!
0"
0#
0%
15
b10111 9
b11100 :
b1000 H
b11110100001000100110 K
0L
0M
0O
0P
b1111 `
1a
b10111 b
b11100 c
1h
1u
b11000 v
1w
bx x
b100000 y
b11111111111111111111111111110111 z
#260000
05
0h
0u
0w
#265000
1#
b100000 $
1%
b11111111111111111111111111110111 &
15
b10111 ;
b11110100001000100101 K
1M
b100000 N
1P
b11111111111111111111111111110111 Q
1h
1u
b11100 v
1w
bx x
#270000
05
0h
0u
0w
#275000
1!
1"
15
b11110100001000100100 K
1L
1O
1h
1u
b11100 v
1w
bx x
#280000
05
0h
0u
0w
#285000
0!
0"
0#
0%
15
b11111111111111111111111111110111 9
b100000 :
b1001 H
b11110100001000100011 K
0L
0M
0O
0P
b1111 `
1a
b11111111111111111111111111110111 b
b100000 c
1h
1u
b11100 v
1w
bx x
b100100 y
b11111111111111111111111111110110 z
#290000
05
0h
0u
0w
#295000
1#
b100100 $
1%
b11111111111111111111111111110110 &
15
b11111111111111111111111111110111 ;
b11110100001000100010 K
1M
b100100 N
1P
b11111111111111111111111111110110 Q
1h
1u
b100000 v
1w
bx x
#300000
05
0h
0u
0w
#305000
1!
1"
15
b11110100001000100001 K
1L
1O
1h
1u
b100000 v
1w
bx x
#310000
05
0h
0u
0w
#315000
0!
0"
0#
0%
15
b11111111111111111111111111110110 9
b100100 :
b1010 H
b11110100001000100000 K
0L
0M
0O
0P
b1111 `
1a
b11111111111111111111111111110110 b
b100100 c
1h
1u
b100000 v
1w
bx x
b101000 y
b0 z
#320000
05
0h
0u
0w
#325000
1#
b101000 $
1%
b0 &
15
b11111111111111111111111111110110 ;
b11110100001000011111 K
1M
b101000 N
1P
b0 Q
1h
1u
b100100 v
1w
bx x
#330000
05
0h
0u
0w
#335000
1!
1"
15
b11110100001000011110 K
1L
1O
1h
1u
b100100 v
1w
bx x
#340000
05
0h
0u
0w
#345000
0!
0"
0#
0%
0)
15
b0 9
b101000 :
b0 H
b11110100001000011101 K
0L
0M
0O
0P
0S
b1111 `
1a
b0 b
b101000 c
1h
1u
b100100 v
1w
bx x
b0 {
b0 |
b11111111111111111111111111111111 }
#350000
05
0h
0u
0w
#355000
1(
1)
b0 *
15
b0 ;
b11110100001000011100 K
1S
b0 T
1U
1h
1u
b101000 v
1w
bx x
#360000
05
0h
0u
0w
#365000
1'
15
b0 7
b11110100001000011011 K
1R
b0 `
1h
1u
b101000 v
1w
bx x
#370000
05
0h
0u
0w
#375000
0'
15
b0 :
b11110100001000011010 K
0R
b0 `
1a
b0 c
1h
1k
1u
b101000 v
1w
bx x
#380000
05
0h
0u
0w
#385000
1'
15
b0 ;
b11110100001000011001 K
1R
b0 `
1h
1u
b0 v
1w
bx x
#390000
05
0h
0u
0w
#395000
0'
1+
b0 ,
15
b11110100001000011000 K
0R
1V
b0 W
b0 `
1a
b0 c
1h
0k
1u
b0 v
1w
bx x
#400000
05
0h
0u
0w
#405000
0'
0)
0+
15
b1 H
b11110100001000010111 K
0R
0S
0V
b0 `
1h
1u
b0 v
1w
bx x
b100 {
b11111111111111111111111111110110 |
b11111111111111111111111111111111 }
#410000
05
0h
0u
0w
#415000
1(
1)
b100 *
15
b11110100001000010110 K
1S
b100 T
1h
1u
b0 v
1w
bx x
#420000
05
0h
0u
0w
#425000
1'
15
b11110100001000010101 K
1R
b0 `
1h
1u
b0 v
1w
bx x
#430000
05
0h
0u
0w
#435000
0'
15
b100 :
b11110100001000010100 K
0R
b0 `
1a
b100 c
1h
1k
1u
b0 v
1w
bx x
#440000
05
0h
0u
0w
#445000
1'
15
b11111111111111111111111111110110 ;
b11110100001000010011 K
1R
b0 `
1h
1u
b100 v
1w
bx x
#450000
05
0h
0u
0w
#455000
0'
1+
b11111111111111111111111111110110 ,
15
b11110100001000010010 K
0R
1V
b11111111111111111111111111110110 W
b0 `
1a
b100 c
1h
0k
1u
b100 v
1w
bx x
#460000
05
0h
0u
0w
#465000
0'
0)
0+
15
b10 H
b11110100001000010001 K
0R
0S
0V
b0 `
1h
1u
b100 v
1w
bx x
b1000 {
b11111111111111111111111111110111 |
b11111111111111111111111111111111 }
#470000
05
0h
0u
0w
#475000
1(
1)
b1000 *
15
b11110100001000010000 K
1S
b1000 T
1h
1u
b100 v
1w
bx x
#480000
05
0h
0u
0w
#485000
1'
15
b11110100001000001111 K
1R
b0 `
1h
1u
b100 v
1w
bx x
#490000
05
0h
0u
0w
#495000
0'
15
b1000 :
b11110100001000001110 K
0R
b0 `
1a
b1000 c
1h
1k
1u
b100 v
1w
bx x
#500000
05
0h
0u
0w
#505000
1'
15
b11111111111111111111111111110111 ;
b11110100001000001101 K
1R
b0 `
1h
1u
b1000 v
1w
bx x
#510000
05
0h
0u
0w
#515000
0'
1+
b11111111111111111111111111110111 ,
15
b11110100001000001100 K
0R
1V
b11111111111111111111111111110111 W
b0 `
1a
b1000 c
1h
0k
1u
b1000 v
1w
bx x
#520000
05
0h
0u
0w
#525000
0'
0)
0+
15
b11 H
b11110100001000001011 K
0R
0S
0V
b0 `
1h
1u
b1000 v
1w
bx x
b1100 {
b10111 |
b11111111111111111111111111111111 }
#530000
05
0h
0u
0w
#535000
1(
1)
b1100 *
15
b11110100001000001010 K
1S
b1100 T
1h
1u
b1000 v
1w
bx x
#540000
05
0h
0u
0w
#545000
1'
15
b11110100001000001001 K
1R
b0 `
1h
1u
b1000 v
1w
bx x
#550000
05
0h
0u
0w
#555000
0'
15
b1100 :
b11110100001000001000 K
0R
b0 `
1a
b1100 c
1h
1k
1u
b1000 v
1w
bx x
#560000
05
0h
0u
0w
#565000
1'
15
b10111 ;
b11110100001000000111 K
1R
b0 `
1h
1u
b1100 v
1w
bx x
#570000
05
0h
0u
0w
#575000
0'
1+
b10111 ,
15
b11110100001000000110 K
0R
1V
b10111 W
b0 `
1a
b1100 c
1h
0k
1u
b1100 v
1w
bx x
#580000
05
0h
0u
0w
#585000
0'
0)
0+
15
b100 H
b11110100001000000101 K
0R
0S
0V
b0 `
1h
1u
b1100 v
1w
bx x
b10000 {
b111000 |
b11111111111111111111111111111111 }
#590000
05
0h
0u
0w
#595000
1(
1)
b10000 *
15
b11110100001000000100 K
1S
b10000 T
1h
1u
b1100 v
1w
bx x
#600000
05
0h
0u
0w
#605000
1'
15
b11110100001000000011 K
1R
b0 `
1h
1u
b1100 v
1w
bx x
#610000
05
0h
0u
0w
#615000
0'
15
b10000 :
b11110100001000000010 K
0R
b0 `
1a
b10000 c
1h
1k
1u
b1100 v
1w
bx x
#620000
05
0h
0u
0w
#625000
1'
15
b111000 ;
b11110100001000000001 K
1R
b0 `
1h
1u
b10000 v
1w
bx x
#630000
05
0h
0u
0w
#635000
0'
1+
b111000 ,
15
b11110100001000000000 K
0R
1V
b111000 W
b0 `
1a
b10000 c
1h
0k
1u
b10000 v
1w
bx x
#640000
05
0h
0u
0w
#645000
0'
0)
0+
15
b101 H
b11110100000111111111 K
0R
0S
0V
b0 `
1h
1u
b10000 v
1w
bx x
b10100 {
b111111 |
b11111111111111111111111111111111 }
#650000
05
0h
0u
0w
#655000
1(
1)
b10100 *
15
b11110100000111111110 K
1S
b10100 T
1h
1u
b10000 v
1w
bx x
#660000
05
0h
0u
0w
#665000
1'
15
b11110100000111111101 K
1R
b0 `
1h
1u
b10000 v
1w
bx x
#670000
05
0h
0u
0w
#675000
0'
15
b10100 :
b11110100000111111100 K
0R
b0 `
1a
b10100 c
1h
1k
1u
b10000 v
1w
bx x
#680000
05
0h
0u
0w
#685000
1'
15
b111111 ;
b11110100000111111011 K
1R
b0 `
1h
1u
b10100 v
1w
bx x
#690000
05
0h
0u
0w
#695000
0'
1+
b111111 ,
15
b11110100000111111010 K
0R
1V
b111111 W
b0 `
1a
b10100 c
1h
0k
1u
b10100 v
1w
bx x
#700000
05
0h
0u
0w
#705000
0'
0)
0+
15
b110 H
b11110100000111111001 K
0R
0S
0V
b0 `
1h
1u
b10100 v
1w
bx x
b11000 {
b111000 |
b11111111111111111111111111111111 }
#710000
05
0h
0u
0w
#715000
1(
1)
b11000 *
15
b11110100000111111000 K
1S
b11000 T
1h
1u
b10100 v
1w
bx x
#720000
05
0h
0u
0w
#725000
1'
15
b11110100000111110111 K
1R
b0 `
1h
1u
b10100 v
1w
bx x
#730000
05
0h
0u
0w
#735000
0'
15
b11000 :
b11110100000111110110 K
0R
b0 `
1a
b11000 c
1h
1k
1u
b10100 v
1w
bx x
#740000
05
0h
0u
0w
#745000
1'
15
b111000 ;
b11110100000111110101 K
1R
b0 `
1h
1u
b11000 v
1w
bx x
#750000
05
0h
0u
0w
#755000
0'
1+
b111000 ,
15
b11110100000111110100 K
0R
1V
b111000 W
b0 `
1a
b11000 c
1h
0k
1u
b11000 v
1w
bx x
#760000
05
0h
0u
0w
#765000
0'
0)
0+
15
b111 H
b11110100000111110011 K
0R
0S
0V
b0 `
1h
1u
b11000 v
1w
bx x
b11100 {
b10111 |
b11111111111111111111111111111111 }
#770000
05
0h
0u
0w
#775000
1(
1)
b11100 *
15
b11110100000111110010 K
1S
b11100 T
1h
1u
b11000 v
1w
bx x
#780000
05
0h
0u
0w
#785000
1'
15
b11110100000111110001 K
1R
b0 `
1h
1u
b11000 v
1w
bx x
#790000
05
0h
0u
0w
#795000
0'
15
b11100 :
b11110100000111110000 K
0R
b0 `
1a
b11100 c
1h
1k
1u
b11000 v
1w
bx x
#800000
05
0h
0u
0w
#805000
1'
15
b10111 ;
b11110100000111101111 K
1R
b0 `
1h
1u
b11100 v
1w
bx x
#810000
05
0h
0u
0w
#815000
0'
1+
b10111 ,
15
b11110100000111101110 K
0R
1V
b10111 W
b0 `
1a
b11100 c
1h
0k
1u
b11100 v
1w
bx x
#820000
05
0h
0u
0w
#825000
0'
0)
0+
15
b1000 H
b11110100000111101101 K
0R
0S
0V
b0 `
1h
1u
b11100 v
1w
bx x
b100000 {
b11111111111111111111111111110111 |
b11111111111111111111111111111111 }
#830000
05
0h
0u
0w
#835000
1(
1)
b100000 *
15
b11110100000111101100 K
1S
b100000 T
1h
1u
b11100 v
1w
bx x
#840000
05
0h
0u
0w
#845000
1'
15
b11110100000111101011 K
1R
b0 `
1h
1u
b11100 v
1w
bx x
#850000
05
0h
0u
0w
#855000
0'
15
b100000 :
b11110100000111101010 K
0R
b0 `
1a
b100000 c
1h
1k
1u
b11100 v
1w
bx x
#860000
05
0h
0u
0w
#865000
1'
15
b11111111111111111111111111110111 ;
b11110100000111101001 K
1R
b0 `
1h
1u
b100000 v
1w
bx x
#870000
05
0h
0u
0w
#875000
0'
1+
b11111111111111111111111111110111 ,
15
b11110100000111101000 K
0R
1V
b11111111111111111111111111110111 W
b0 `
1a
b100000 c
1h
0k
1u
b100000 v
1w
bx x
#880000
05
0h
0u
0w
#885000
0'
0)
0+
15
b1001 H
b11110100000111100111 K
0R
0S
0V
b0 `
1h
1u
b100000 v
1w
bx x
b100100 {
b11111111111111111111111111110110 |
b11111111111111111111111111111111 }
#890000
05
0h
0u
0w
#895000
1(
1)
b100100 *
15
b11110100000111100110 K
1S
b100100 T
1h
1u
b100000 v
1w
bx x
#900000
05
0h
0u
0w
#905000
1'
15
b11110100000111100101 K
1R
b0 `
1h
1u
b100000 v
1w
bx x
#910000
05
0h
0u
0w
#915000
0'
15
b100100 :
b11110100000111100100 K
0R
b0 `
1a
b100100 c
1h
1k
1u
b100000 v
1w
bx x
#920000
05
0h
0u
0w
#925000
1'
15
b11111111111111111111111111110110 ;
b11110100000111100011 K
1R
b0 `
1h
1u
b100100 v
1w
bx x
#930000
05
0h
0u
0w
#935000
0'
1+
b11111111111111111111111111110110 ,
15
b11110100000111100010 K
0R
1V
b11111111111111111111111111110110 W
b0 `
1a
b100100 c
1h
0k
1u
b100100 v
1w
bx x
#940000
05
0h
0u
0w
#945000
0'
0)
0+
15
b1010 H
b11110100000111100001 K
0R
0S
0V
b0 `
1h
1u
b100100 v
1w
bx x
b101000 {
b0 |
b11111111111111111111111111111111 }
#950000
05
0h
0u
0w
#955000
1(
1)
b101000 *
15
b11110100000111100000 K
1S
b101000 T
1h
1u
b100100 v
1w
bx x
#960000
05
0h
0u
0w
#965000
1'
15
b11110100000111011111 K
1R
b0 `
1h
1u
b100100 v
1w
bx x
#970000
05
0h
0u
0w
#975000
0'
15
b101000 :
b11110100000111011110 K
0R
b0 `
1a
b101000 c
1h
1k
1u
b100100 v
1w
bx x
#980000
05
0h
0u
0w
#985000
1'
15
b0 ;
b11110100000111011101 K
1R
b0 `
1h
1u
b101000 v
1w
bx x
#990000
05
0h
0u
0w
#995000
0'
1+
b0 ,
15
b11110100000111011100 K
0R
1V
b0 W
b0 `
1a
b101000 c
1h
0k
1u
b101000 v
1w
bx x
#1000000
05
0h
0u
0w
#1005000
0'
0)
0+
15
b1011 H
b11110100000111011011 K
0R
0S
0V
b0 `
1h
1u
b101000 v
1w
bx x
#1010000
05
0h
0u
0w
#1015000
0#
0%
15
b11110100000111011010 K
1h
1u
b101000 v
1w
bx x
b101100 y
b1 z
#1020000
05
0h
0u
0w
#1025000
1#
b101100 $
1%
b1 &
15
b11110100000111011001 K
1M
b101100 N
1P
b1 Q
1h
1u
b101000 v
1w
bx x
#1030000
05
0h
0u
0w
#1035000
1!
1"
15
b11110100000111011000 K
1L
1O
1h
1u
b101000 v
1w
bx x
#1040000
05
0h
0u
0w
#1045000
15
b11110100000111010111 K
1L
1O
1h
b0 j
1u
b101000 v
1w
bx x
#1050000
05
0h
0u
0w
#1055000
10
15
b11110100000111010110 K
1L
1O
1[
1h
b0 j
1u
b101000 v
1w
bx x
#1060000
05
0h
0u
0w
#1065000
1-
b10 .
00
15
b0 :
b1111 <
1=
b1 >
b0 ?
bx @
b1 G
b11110100000111010101 K
1L
1O
b10 Z
0[
b0 `
1a
b0 c
b1111 d
1e
b1 f
b0 g
1h
b0 j
b100 l
b0 m
b0 n
b1 o
b1 p
b1 q
b0 r
b0 s
1u
b101000 v
1w
bx x
b10 ~
#1070000
05
0h
0u
0w
#1075000
15
b0 ;
b0 <
b1 @
b11110100000111010100 K
1L
1O
b0 `
1a
b0 c
b0 d
1e
b0 g
1h
b0 j
1t
1u
b0 v
1w
b0 x
#1080000
05
0h
0u
0w
#1085000
15
b11110100000111010011 K
1L
1O
1h
b0 j
b10 o
0t
1u
b0 v
1w
b0 x
#1090000
05
0h
0u
0w
#1095000
15
b11110100000111010010 K
1L
1O
1h
b0 j
b11 o
b0 r
b1 s
1u
b0 v
1w
b0 x
#1100000
05
0h
0u
0w
#1105000
15
b11110100000111010001 K
1L
1O
1h
b0 j
b100 o
1u
b0 v
1w
b0 x
#1110000
05
0h
0u
0w
#1115000
b0 !!
b0 "!
11
12
b0 3
15
b0 H
b11110100000111010000 K
1L
1O
1]
b0 _
1h
b0 j
1u
b0 v
1w
b0 x
#1120000
05
0h
0u
0w
#1125000
02
15
b11110100000111001111 K
1L
1O
0]
b0 _
1h
b0 j
b0 o
1u
b0 v
1w
b0 x
#1130000
05
0h
0u
0w
#1135000
b11111111111111111111111111110110 !!
b1 "!
10
11
15
b1 H
b11110100000111001110 K
1L
1O
1[
1h
b0 j
1u
b0 v
1w
b0 x
#1140000
05
0h
0u
0w
#1145000
1-
b11 .
00
15
b1111 <
b10 >
b100 ?
b10 G
b11110100000111001101 K
1L
1O
b11 Z
0[
b0 `
1a
b0 c
b1111 d
1e
b10 f
b100 g
1h
b0 j
b1000 l
b100 m
b0 n
b1 o
b10 p
b10 q
b0 r
b0 s
1u
b0 v
1w
b0 x
b11 ~
#1150000
05
0h
0u
0w
#1155000
15
b0 <
b10 @
b11110100000111001100 K
1L
1O
b0 `
1a
b0 c
b0 d
1e
b100 g
1h
b0 j
1t
1u
b0 v
1w
b100 x
#1160000
05
0h
0u
0w
#1165000
15
b11110100000111001011 K
1L
1O
1h
b0 j
b10 o
0t
1u
b0 v
1w
b100 x
#1170000
05
0h
0u
0w
#1175000
15
b11110100000111001010 K
1L
1O
1h
b0 j
b11 o
b0 r
b1 s
1u
b0 v
1w
b100 x
#1180000
05
0h
0u
0w
#1185000
15
b11110100000111001001 K
1L
1O
1h
b0 j
b0 m
b100 n
b1 o
1u
b0 v
1w
b100 x
#1190000
05
0h
0u
0w
#1195000
15
b100 :
b0 ?
b11110100000111001000 K
1L
1O
b0 `
1a
b100 c
b0 d
1e
b0 g
1h
b0 j
1t
1u
b0 v
1w
b100 x
#1200000
05
0h
0u
0w
#1205000
15
b11111111111111111111111111110110 ;
b1 @
b11110100000111000111 K
1L
1O
1h
b0 j
b10 o
0t
1u
b100 v
1w
b0 x
#1210000
05
0h
0u
0w
#1215000
15
b11110100000111000110 K
1L
1O
1h
b0 j
b11 o
b11111111111111111111111111110110 r
b10 s
1u
b100 v
1w
b0 x
#1220000
05
0h
0u
0w
#1225000
15
b11110100000111000101 K
1L
1O
1h
b0 j
b100 o
1u
b100 v
1w
b0 x
#1230000
05
0h
0u
0w
#1235000
12
b11111111111111111111111111110110 3
15
b11110100000111000100 K
1L
1O
1]
b11111111111111111111111111110110 _
1h
b0 j
1u
b100 v
1w
b0 x
#1240000
05
0h
0u
0w
#1245000
b11111111111111111111111111100011 !!
b10 "!
11
02
15
b10 H
b11110100000111000011 K
1L
1O
0]
b11111111111111111111111111110110 _
1h
b0 j
b0 o
1u
b100 v
1w
b0 x
#1250000
05
0h
0u
0w
#1255000
10
15
b11110100000111000010 K
1L
1O
1[
1h
b0 j
1u
b100 v
1w
b0 x
#1260000
05
0h
0u
0w
#1265000
1-
b100 .
00
15
b0 :
b1111 <
b11 >
b1000 ?
b11 G
b11110100000111000001 K
1L
1O
b100 Z
0[
b0 `
1a
b0 c
b1111 d
1e
b11 f
b1000 g
1h
b0 j
b1100 l
b1000 m
b0 n
b1 o
b11 p
b11 q
b0 r
b0 s
1u
b100 v
1w
b0 x
b100 ~
#1270000
05
0h
0u
0w
#1275000
15
b0 ;
b0 <
b11 @
b11110100000111000000 K
1L
1O
b0 `
1a
b0 c
b0 d
1e
b1000 g
1h
b0 j
1t
1u
b0 v
1w
b1000 x
#1280000
05
0h
0u
0w
#1285000
15
b11110100000110111111 K
1L
1O
1h
b0 j
b10 o
0t
1u
b0 v
1w
b1000 x
#1290000
05
0h
0u
0w
#1295000
15
b11110100000110111110 K
1L
1O
1h
b0 j
b11 o
b0 r
b1 s
1u
b0 v
1w
b1000 x
#1300000
05
0h
0u
0w
#1305000
15
b11110100000110111101 K
1L
1O
1h
b0 j
b100 m
b100 n
b1 o
1u
b0 v
1w
b1000 x
#1310000
05
0h
0u
0w
#1315000
15
b100 :
b100 ?
b11110100000110111100 K
1L
1O
b0 `
1a
b100 c
b0 d
1e
b100 g
1h
b0 j
1t
1u
b0 v
1w
b1000 x
#1320000
05
0h
0u
0w
#1325000
15
b11111111111111111111111111110110 ;
b10 @
b11110100000110111011 K
1L
1O
1h
b0 j
b10 o
0t
1u
b100 v
1w
b100 x
#1330000
05
0h
0u
0w
#1335000
15
b11110100000110111010 K
1L
1O
1h
b0 j
b11 o
b11111111111111111111111111101100 r
b10 s
1u
b100 v
1w
b100 x
#1340000
05
0h
0u
0w
#1345000
15
b11110100000110111001 K
1L
1O
1h
b0 j
b0 m
b1000 n
b1 o
1u
b100 v
1w
b100 x
#1350000
05
0h
0u
0w
#1355000
15
b1000 :
b0 ?
b11110100000110111000 K
1L
1O
b0 `
1a
b1000 c
b0 d
1e
b0 g
1h
b0 j
1t
1u
b100 v
1w
b100 x
#1360000
05
0h
0u
0w
#1365000
15
b11111111111111111111111111110111 ;
b1 @
b11110100000110110111 K
1L
1O
1h
b0 j
b10 o
0t
1u
b1000 v
1w
b0 x
#1370000
05
0h
0u
0w
